Lab 5
…
(roots_bag_tune <- bag_roots(bag_tune_fit))

## # A tibble: 1,000 x 1
##    root         
##    <chr>        
##  1 tag_ed_fg_Y  
##  2 tag_ed_fg_Y  
##  3 tag_ed_fg_Y  
##  4 tag_ed_fg_Y  
##  5 econ_dsvntg_Y
##  6 enrl_grd     
##  7 tag_ed_fg_Y  
##  8 econ_dsvntg_N
##  9 tag_ed_fg_Y  
## 10 tag_ed_fg_Y  
## #  with 990 more rows
…
